<?xml version="1.0" encoding="UTF-8" standalone="no"?>
<svg
   xmlns:dc="http://purl.org/dc/elements/1.1/"
   xmlns:cc="http://creativecommons.org/ns#"
   xmlns:rdf="http://www.w3.org/1999/02/22-rdf-syntax-ns#"
   xmlns:svg="http://www.w3.org/2000/svg"
   xmlns="http://www.w3.org/2000/svg"
   xmlns:sodipodi="http://sodipodi.sourceforge.net/DTD/sodipodi-0.dtd"
   xmlns:inkscape="http://www.inkscape.org/namespaces/inkscape"
   height="64"
   id="svg7384"
   version="1.1"
   width="64"
   inkscape:version="0.92.4 (unknown)"
   sodipodi:docname="feed-service-local.svg">
  <sodipodi:namedview
     pagecolor="#ffffff"
     bordercolor="#666666"
     borderopacity="1"
     objecttolerance="10"
     gridtolerance="10"
     guidetolerance="10"
     inkscape:pageopacity="0"
     inkscape:pageshadow="2"
     inkscape:window-width="1920"
     inkscape:window-height="898"
     id="namedview17"
     showgrid="false"
     inkscape:zoom="10.429825"
     inkscape:cx="22.541935"
     inkscape:cy="32.7185"
     inkscape:window-x="0"
     inkscape:window-y="0"
     inkscape:window-maximized="1"
     inkscape:current-layer="svg7384" />
  <metadata
     id="metadata90">
    <rdf:RDF>
      <cc:Work
         rdf:about="">
        <dc:format>image/svg+xml</dc:format>
        <dc:type
           rdf:resource="http://purl.org/dc/dcmitype/StillImage" />
        <dc:title>elementary Symbolic Icon Theme</dc:title>
      </cc:Work>
    </rdf:RDF>
  </metadata>
  <title
     id="title9167">elementary Symbolic Icon Theme</title>
  <defs
     id="defs7386" />
  <g
     id="layer9"
     style="display:inline;fill:#000000"
     transform="matrix(0.9,0,0,0.9,-728.50018,476.5999)" />
  <g
     id="layer10"
     style="display:inline;fill:#000000"
     transform="matrix(0.9,0,0,0.9,-728.50018,476.5999)" />
  <g
     id="layer11"
     transform="matrix(0.9,0,0,0.9,-728.50018,476.5999)"
     style="fill:#000000" />
  <g
     id="layer13"
     style="display:inline;fill:#000000"
     transform="matrix(0.9,0,0,0.9,-728.50018,476.5999)" />
  <g
     id="layer14"
     transform="matrix(4.7999979,0,0,4.8,-3908.8002,2288)"
     style="fill:#000000;fill-opacity:1;stroke:none;stroke-opacity:1">
    <path
       d="m 325.0625,97.1875 a 2,3.236068 0 1 1 -4,0 2,3.236068 0 1 1 4,0 z"
       id="path4983"
       style="color:#000000;display:inline;overflow:visible;visibility:visible;fill:#000000;fill-opacity:1;fill-rule:nonzero;stroke:none;stroke-width:1.69602728;stroke-opacity:1;marker:none;enable-background:new"
       transform="matrix(1.0000007,0,0,0.61803426,493.93767,-526.06521)"
       inkscape:connector-curvature="0" />
    <path
       d="m 815.0004,-476 v 1 c 0,0.55016 0.45347,1 1,1 4.97056,0 9,4.02944 9,9 0,0.55016 0.45347,1 1,1 h 1 v -1 c 0,-6.07513 -4.92487,-11 -11,-11 z m 0,4 v 1 c 0,0.55016 0.45347,1 1,1 2.76143,0 5,2.23857 5,5 0,0.55016 0.45347,1 1,1 h 1 v -1 c 0,-3.866 -3.134,-7 -7,-7 z"
       id="path5814"
       style="color:#000000;display:inline;overflow:visible;visibility:visible;fill:#000000;fill-opacity:1;fill-rule:nonzero;stroke:none;stroke-width:1.33333492;stroke-opacity:1;marker:none;enable-background:new"
       inkscape:connector-curvature="0" />
  </g>
  <g
     id="layer15"
     style="display:inline;fill:#000000"
     transform="matrix(0.9,0,0,0.9,-728.50018,476.5999)" />
  <g
     id="g71291"
     style="display:inline;fill:#000000"
     transform="matrix(0.9,0,0,0.9,-728.50018,476.5999)" />
  <g
     id="g4953"
     style="display:inline;fill:#000000"
     transform="matrix(0.9,0,0,0.9,-728.50018,476.5999)" />
  <g
     id="layer12"
     style="display:inline;fill:#000000"
     transform="matrix(0.9,0,0,0.9,-728.50018,476.5999)" />
</svg>
