<?xml version="1.0" encoding="UTF-8" standalone="no"?>
<svg
   xmlns:dc="http://purl.org/dc/elements/1.1/"
   xmlns:cc="http://creativecommons.org/ns#"
   xmlns:rdf="http://www.w3.org/1999/02/22-rdf-syntax-ns#"
   xmlns:svg="http://www.w3.org/2000/svg"
   xmlns="http://www.w3.org/2000/svg"
   xmlns:sodipodi="http://sodipodi.sourceforge.net/DTD/sodipodi-0.dtd"
   xmlns:inkscape="http://www.inkscape.org/namespaces/inkscape"
   version="1.1"
   id="Layer_1"
   x="0px"
   y="0px"
   width="595.28px"
   height="595.28px"
   viewBox="0 0 595.28 595.28"
   enable-background="new 0 0 595.28 595.28"
   xml:space="preserve"
   sodipodi:docname="feed-service-newsblur-symbolic.svg"
   inkscape:version="1.0.1 (3bc2e813f5, 2020-09-07)"><metadata
   id="metadata11"><rdf:RDF><cc:Work
       rdf:about=""><dc:format>image/svg+xml</dc:format><dc:type
         rdf:resource="http://purl.org/dc/dcmitype/StillImage" /></cc:Work></rdf:RDF></metadata><defs
   id="defs9" /><sodipodi:namedview
   pagecolor="#ffffff"
   bordercolor="#666666"
   borderopacity="1"
   objecttolerance="10"
   gridtolerance="10"
   guidetolerance="10"
   inkscape:pageopacity="0"
   inkscape:pageshadow="2"
   inkscape:window-width="1920"
   inkscape:window-height="995"
   id="namedview7"
   showgrid="false"
   inkscape:zoom="1.6933207"
   inkscape:cx="297.64001"
   inkscape:cy="297.64001"
   inkscape:window-x="0"
   inkscape:window-y="0"
   inkscape:window-maximized="1"
   inkscape:current-layer="Layer_1" />
<g
   id="g4"
   style="fill:#bebebe;fill-opacity:1">
  <path
   fill-rule="evenodd"
   clip-rule="evenodd"
   d="M297.54,570.09c-150.668,0-272.81-122.142-272.81-272.81     S146.872,24.47,297.54,24.47c150.669,0,272.81,122.141,272.81,272.81S448.209,570.09,297.54,570.09z M473.329,122.554     l-120.625,44.115L298.604,50.181l-54.101,116.489l-120.625-44.115l44.114,120.625L51.504,297.28l116.488,54.101l-44.114,120.625     l120.625-44.114l54.101,116.488l54.101-116.488l120.625,44.114l-44.115-120.625l116.489-54.101l-116.489-54.101L473.329,122.554z      M297.54,427.291c-71.101,0-128.945-57.845-128.945-128.945c0-71.101,57.845-128.945,128.945-128.945     s128.945,57.844,128.945,128.945C426.485,369.446,368.641,427.291,297.54,427.291z M297.54,190.714     c-59.348,0-107.632,48.283-107.632,107.632s48.284,107.632,107.632,107.632c59.349,0,107.632-48.283,107.632-107.632     S356.889,190.714,297.54,190.714z"
   id="path2"
   style="fill:#bebebe;fill-opacity:1" />
</g>
</svg>
